<?xml version="1.0" encoding="UTF-8" standalone="no"?>
<svg width="32px" height="32px" viewBox="0 0 32 32" version="1.1" xmlns="http://www.w3.org/2000/svg" xmlns:xlink="http://www.w3.org/1999/xlink">
    <!-- Generator: Sketch 3.8.3 (29802) - http://www.bohemiancoding.com/sketch -->
    <title>48 - mdpi</title>
    <desc>Created with Sketch.</desc>
    <defs></defs>
    <g id="Page-1" stroke="none" stroke-width="1" fill="none" fill-rule="evenodd">
        <g id="48---mdpi" fill="#e03124">
            <polygon id="Add" transform="translate(16.000000, 16.000000) rotate(-45.000000) translate(-16.000000, -16.000000) " points="26.2519831 4 16 14.2519831 5.7480169 4 4 5.7480169 14.2519831 15.9987638 4 26.2519831 5.7480169 28 16 17.7480169 26.2519831 28 28 26.2519831 17.7480169 15.9987638 28 5.7480169"></polygon>
        </g>
    </g>
</svg>